﻿{
  "Group": "Payment methods",
  "FriendlyName": "پرداخت بانک  پاسارگاد",
  "SystemName": "Payments.Pasargad",
  "Version": "2.0",
  "SupportedVersions": [
    "4.10"
  ],
  "Author": "nopForest team",
  "DisplayOrder": 1,
  "FileName": "Nopforest.Plugin.Payments.Pasargad.dll",
  "Description": "This plugin allows paying with Bank Pasargad",
  "LimitedToStores": [],
  "LimitedToCustomerRoles": []
}