﻿{
  "Group": "Shipping rate computation",
  "FriendlyName": "Shipping by total",
  "SystemName": "Shipping.ByTotal",
  "Version": "1.25",
  "SupportedVersions": [
    "4.10"
  ],
  "Author": "mb",
  "DisplayOrder": 1,
  "FileName": "Nop.Plugin.Shipping.ByTotal.dll",
  "Description": "This plugin provides shipping rates based on an order's subtotal.",
  "LimitedToStores": [],
  "LimitedToCustomerRoles": []
}