﻿{
  "Group": "Discount requirements",
  "FriendlyName": "اعمال تخفیف به یک نقش مشتری خاص",
  "SystemName": "DiscountRequirement.MustBeAssignedToCustomerRole",
  "Version": "1.25",
  "SupportedVersions": [
    "4.10"
  ],
  "Author": "nopCommerce team",
  "DisplayOrder": 1,
  "FileName": "Nop.Plugin.DiscountRules.CustomerRoles.dll",
  "Description": "This plugin allows you to configure discounts for certain customer groups (roles)",
  "LimitedToStores": [],
  "LimitedToCustomerRoles": []
}