﻿[
  "DiscountRequirement.MustBeAssignedToCustomerRole",
  "CurrencyExchange.ECB",
  "ExternalAuth.Facebook",
  "Payments.Manual",
  "Payments.Square",
  "Payments.WorldpayUS",
  "Payments.PayPalStandard",
  "Pickup.PickupInStore",
  "Shipping.FixedByWeightByTotal",
  "Shipping.UPS",
  "Widgets.GoogleAnalytics",
  "Widgets.NivoSlider",
  "SevenSpikes.Core",
  "SevenSpikes.Nop.Plugins.AjaxCart",
  "SevenSpikes.Nop.Plugins.JCarousel",
  "SevenSpikes.Nop.Plugins.AnywhereSliders",
  "SevenSpikes.Nop.Plugins.CloudZoom",
  "SevenSpikes.Nop.Plugins.MegaMenu",
  "SevenSpikes.Nop.Plugins.RichBlog",
  "SevenSpikes.Nop.Plugins.AjaxFilters",
  "SevenSpikes.Nop.Plugins.SaleOfTheDay",
  "SevenSpikes.Nop.Plugins.SmartProductCollections",
  "SevenSpikes.Nop.Plugins.ProductRibbons",
  "SevenSpikes.Nop.Plugins.QuickView",
  "SevenSpikes.Theme.Emporium",
  "SevenSpikes.Nop.Plugins.AjaxFilters.Pro",
  "SevenSpikes.Nop.Plugins.NopQuickTabs",
  "Modaresan.Sharif",
  "Payments.BankSepah",
  "DiscountRequirement.HasCategories",
  "Nopforest.Messages.Broadcaster",
  "Nopforest.Messages.Sms",
  "Product.Attachments",
  "Shipping.ByTotal",
  "Calendar Widget",
  "NopForest.Base",
  "NopForest.Admin.Api",
  "Payments.Saderat",
  "Payments.Pasargad"
]