﻿{
  "Group": "Payment methods",
  "FriendlyName": "درگاه  پرداخت بانک  سپه",
  "SystemName": "Payments.BankSepah",
  "Version": "2.0",
  "SupportedVersions": [
    "4.10"
  ],
  "Author": "nopForest team",
  "DisplayOrder": 1,
  "FileName": "Nopforest.Plugin.Payments.BankSepah.dll",
  "Description": "This plugin allows paying with Bank Sepah",
  "LimitedToStores": [],
  "LimitedToCustomerRoles": []
}